{
  "about": "Born out of the need for a convenient, effortless and individualised way of shopping, The Mad Dresser is the brainchild of the sister trio Prachi, Tanvi and Vanshika Gupta. After noticing her busy schedule was making it difficult to curate her dream wardrobe, Prachi hunted for a service that could understand her style and accordingly select clothes to deliver to her doorstep.\n\nThe other sisters had their own struggles with fashion. Tanvi did not derive any pleasure from the typical 'shopping experience' online or offline. It was just too cumbersome! Vanshika, on the other hand, who loved fashion, wanted a second set of eyes to make sure she was making the right choices. To assist every women's journey to the perfect outfit while recognizing the diversity of relationships with fashion formulated the vision for their company, The Mad Dresser.\n\nThis service provides an avenue for all to embrace fashion on their terms. As a women led organisation, The Mad Dresser knows women wear multiple hats, and work to ensure they feel their confident best in all of them.",
  "services": "",
  "terms": "",
  "contact": "",
  "others": "",
  "clientId": "dharmesh.jaggi"
}