{
  "about": "Moneytor is a Debt Management Technology company which offers solutions across Debt Management, Collections, and Distressed Debt Purchase to lenders,\n\nand aids them in the collection and liquidation efforts of their consumer loan portfolios,\n\nall the while fostering happy borrower experiences.\n\nOur Investors & Accelerators\n500 Startups\nAngelList\nStanford Angels & Entrepreneurs India\nOracle Startup Cloud Accelerator\nZone Startups – India\nFintech Valley Vizag\n10000 Startups\nOur Offerings\nanalysis255\nSaaS\nMoneytor's smart and self learning integrated debt management platform digitises the entire debt collection process. Moneytor can operate independently, or integrate with an existing enterprise suite with multiple stakeholders\n\ncollections255\nCollections\nMoneytor's digital first collection offering enables lenders to communicate with their borrowers through multiple modes and in multiple languages.\n\nliquidation255\nDebt Purchase\nWith our data driven collections portfolio analysis, we offer portfolio liquidation services enabling lenders to release up tied capital and optimize cashflows.\n\n",
  "services": "email contact@moneytor.in\n\nphone +919136026767 | +917777037122",
  "terms": "",
  "contact": "",
  "others": "",
  "clientId": "divya_karthikselvan"
}