{
  "about": "DocGenie is a telemedicine platform where you can find 100+ top doctors across 25+ specialities. You can easily book an appointment with any of these doctors and also consult with them from the comfort of your home. \n\nYou can also get lab tests bookings or buy special healthcare plans\n",
  "services": "",
  "terms": "",
  "contact": "",
  "others": "",
  "clientId": "docgenie"
}