{
  "about": "Simplilearn is the world's #1 online Bootcamp for digital economy skills training focused on helping people acquire the skills they need to thrive in the digital economy. We provide rigorous online training in disciplines such as Cyber Security, Cloud Computing, Project Management, Digital Marketing, and Data Science, among others. In other words, we specialize in areas where technologies and best practices are changing rapidly, and the demand for qualified candidates significantly exceeds supply.\n\n",
  "services": "Services available\nProject Management Certification Course , Cyber Security Certification Course , Data Science Bootcamp Program , Data Analytics Bootcamp Program , Business Analysis Certification Course , Agile Certification Course , Digital Marketing Certification Program , Lean Six Sigma Certification Course , DevOps Certification Course , Cloud Computing Certification Course , Data Engineering Course , AI and Machine Learning Course , Full Stack Web Development Course\n\n",
  "terms": "",
  "contact": "contact details\nUnited States\nSimplilearn Americas, Inc.\n201 Spear Street, Suite 1100, San Francisco, CA 94105 United States Call us at: +1-844-532-7688.\n\nIndia\nSimplilearn Solutions Pvt Ltd.\nNALANDA 53/1 C, Manoj Arcade, 24th Main Rd, Sector 2, HSR Layout, Bengaluru - 560102, Karnataka, India.\nCall us at: 1800-212-7688.\n\n",
  "others": "",
  "clientId": "geetika098"
}