{
  "about": "Managed Services\nThe role of Managed Services providers has changed from being a mere vehicle of transactional execution to that of value driven strategic partner. As per a study conducted by HFS and KPMG Managed Services team in the US in October 2021 on 800 executives in a various sectors, including government, financial services, life sciences, retail, travel, and healthcare, the adoption of Managed Services has accelerated as firms seek more than just cost reduction and increased efficiency. 97% of the executives believe that using Managed Services at scale has brought about significant strategic, operational and financial benefits to their firm.\n\nKey findings\nManaged Services is the most effective delivery model for the type of work that providers offer Nearly 9 in 10 executives agree.\nMost companies plan to boost spending on Managed Services over the next two years 75% of respondents said so, and the projected increase is often by significant margins.\nThose using Managed Services see substantial operational and financial rewards 97% anticipate that using Managed Services at scale will boost profits. Nearly three-quarters expect improved employee and customer satisfaction.\nManaged Services already has traction in knowledge-intensive activities Over 40% respondants say Managed Services are used for more than half of their organization's activities in IT, cybersecurity, Risk compliance, and business performance.\nThe top goals for using Managed Services are cost savings, innovation & speed 86% of respondents cite savings and innovation, 83% cite accelerated outcomes.\n\nBeyond Cost Savings\nMost businesses are operating under immense market pressure. While traditional outsourcing can reduce costs and produce leaner operations, Managed Services takes a more holistic approach evolving into true partnership by offering a whole spectrum of services in one or more domain as opposed to providing just a service. As per the study by HFS and KPMG Managed Services team in the US, nine out of ten organization said that their top criteria for selecting Managed Service goes beyond just cost saving and includes driving innovation improving stakeholders’ experience and supporting digital transformation.\n\nA new value proposition for Managed Services\n86% cost saving\n81% Drive Innovation\n81% improve stakeholder experience\n83% Support digital strategy and transformation\n\nKPMG in India Managed Services\nOur Managed Services brings the right blend of human + machine with expertise to the core of your business operations\n—\tBringing a radical user experience through our transformational delivery\n—\tCo-create and co-innovate to drive transformation that results in value-centred business outcomes\n—\tDelivering business impact that keeps you ahead of the curve on applicable compliance and regulatory matters\n—\tRobust governance framework implying transparency and heightened accountability\n\n3 Pillars of Managed Services\n\nSubject matter experts\n—\tIn-depth knowledge throughout the life of the engagement\n—\tProvide insights to aid decisions for optimum business outcomes\n—\tEnd to End accountability to enable you to focus on what matters to you.\nTools and technology\n—\tBest-in-class tools & technology providing multi-platform support\n—\tEnhanced client experience through people, technology, data insights and transformation\n—\tKeeping you ahead of the curve on all technology, compliance, and regulatory matters.\nOperational excellence\n—\tEnabling you to focus on business impacts that are transformational than tactical\n—\tExtensive expertise of running large operations across multiple industries and business areas\n—\tWell-established operational processes, driving Management insights to support decision making.\nWhy we are the right partner for you?\nBridging the skill gap\n—\tAccess to subject matter experts both in domain and sector\n—\tFlexible and scalable to meet your demands\n—\tLeveraging local and global talent\nSmart technology and tools\n—\tFuture-ready services, using best-of-breed technology without upfront investment\n—\tTouchless by design and human intervention by exception\n—\tContinuous value delivery throughout the project cycle\nEnabling you to focus on your core competency\n—\tOffload time-consuming transactional activities to focus on pivotal areas\n—\tGet real-time visibility and control on your processes\n—\tEasy to scale up or down as required\nCost efficiencies and better cost control\n—\tPredictability in cost structure\n—\tIdentifying opportunities to save working capital\n—\tFlexible business model\n\nOur Managed Services offerings\n—\tFinance and Accounting (F&A) Managed Services\n—\tHR & Talent\n—\tForensic Services\n—\tInsight-led Sales\n—\tProcurement & Supply Chain\n—\tCustomer Operations\n—\tLearning Services",
  "services": "",
  "terms": "",
  "contact": "",
  "others": "",
  "clientId": "kpmg_genai"
}