{
  "about": "Letzrent is an aggregator cum comparison platform which allows user to search, compare and rent products across categories and get rewarded in return.\n\nLetzrent is an online rental aggregator cum comparison platform where you can fulfil all your rental needs from trustworthy and reliable service providers. Starting from a hatchback to a Limousine or even a private jet for a few hours can be rented on Letzrent\nToday’s youth believes in growth and flexibility. They prefer not to stick to a particular spot, but to explore all the opportunities available around them and to grow. Spending money on buying cars and houses is a huge investment, but the question is if all this effort and investment is worth it.\nIndian households conventionally believe in the owning of cars and houses as status symbols. Even today some people’s ultimate goal in life is to have a car, house and family. Many people in metro cities prefer to not use their own cars except on weekend and still have to spend on it's EMI, insurance, maintenance and repairs. We all would like to have premium furniture for our houses but postpone plans waiting to first buy a house and then spend money on furniture. The concept of co-living space may still sound new and inappropriate to some.  \nOnce a person starts earning and planning his finances and future, it is important for him to think logically and rationally. Critically analysing according to future plans and then making important decisions is the key to a successful life. ",
  "services": "Self Drive Cars on Rent\nChauffeur Driven Cars on  Rent\nCo-Working Spaces\nCo-Living  Spaces\nFurniture on Rent\nAircraft Joyrides\nApparel on Rent\nAppliances on Rent\n",
  "terms": "https://www.letzrent.com/terms.html",
  "contact": "Call us on 9987933348\nWatsapp: 9987933348\nEmail: hello@letzrent.com",
  "others": "Rent It\n\nGet Rewarded \n\nRedeem\n\n",
  "clientId": "Letzrent"
}