{
  "about": "If you have individual software solutions that work, but don't talk to each other, you are probably entering things more than once and missing a comprehensive overview of what's going on.\n\nBetween the Odoo apps and the tens of thousands of Community apps, there is something to help address all of your business needs in a single, cost-effective and modular solution: no more work to get different technology cooperating.  \n\nOdoo apps are perfectly integrated with each other, allowing you to fully automate your business processes and reap the savings and benefits.",
  "services": "",
  "terms": "",
  "contact": "contact\n1122366\n\nHR contact\nreally?\n",
  "others": "",
  "clientId": "rajn1291"
}