{
  "about": "Reagan | India's leading Air Conditioning & Lifestyle Company.  With 21 years in the industry, Reagan is a leading brand for quality HVAC and Air quality Solutions and represents a range of lifestyle products like displays. The world is forever changing and we at Reagan always strive to look ahead and be innovative in our services and products. We do not believe in customer satisfaction, but customer delight and we strive to achieve the same through quality workmanship, cost effective, sustainable and eco-friendly products and services and our skilled team built over the years.\nOur vision is to create healthier and richer lives for our customer’s better tomorrow , by providing eco-friendly solutions of the highest level of design and engineering possible through continuous innovation and quality workmanship.",
  "services": "Phone: +91 969 699 6666\nEmail: hello@reaganinc.com",
  "terms": "",
  "contact": "",
  "others": "",
  "clientId": "reaganbot"
}