{
  "about": "Yes, we have 2 BHK with 2 variants of Super Built-up area of 1050 & 1115 sqft. The current price is RS. 4300/- PER SQ.FT. + some additional charges. The final cost for a 2BHK unit including GST, registration charge, and amenities would cost approximately Rs 57 Lakhs. We have 2.5 BHK, 3 BHK & 4 BHK flats in the Saakaar Aqua city project. In 2.5 BHK we have a size of 1185 sq. ft. In 3 BHK we have 3 variant sizes - 1799, 1781, and 1992 per sq. ft. and in 4 BHK also we have three options - 4178 sqft, 3225 sqft, and 2506 sqft. For any further enquiry/information.",
  "services": "",
  "terms": "",
  "contact": "",
  "others": "",
  "clientId": "saakaar_chatbot"
}