{
  "about": "Our mission is to be your digital partner for Sustainability and Efficiency.\n\nWe drive digital transformation by integrating world-leading process and energy technologies to realise the full efficiency and sustainability opportunities for your business. We provide end-point to cloud integration connecting products, controls, software and services. We enable lifecycle solutions from design and build to operate and maintain phases through a digital twin. We deliver capabilities to transform from site-to-site to an integrated company management. Our integrated solutions are built with safety, reliability and cybersecurity for your homes, buildings, data centres, infrastructure and industries.",
  "services": "",
  "terms": "",
  "contact": "",
  "others": "",
  "clientId": "schneider_chatbot"
}