{
  "about": "SpecnoTech is dedicated to learning and understanding your business. We are a strategic digital agency with a passion for helping brands and services to meet their business goals through ground-breaking tactics. SpecnoTech has innovative digital marketing solutions that revolutionize outcomes for our partner brands. By building a relationship with each of our clients, we can ensure our marketing strategy is built with the sole focus of solving the problems your business faces. We are committed to using the best practices and staying on top of the latest innovations in digital marketing.",
  "services": "We are one-stop-shop for all of your digital needs. We provide services like,\nContent Writing,\nGraphic Designing,\nVideo Editing,\nVideo Making,\nSearch Engine Optimisation,\nSocial Media Marketing,\nDigital Marketing,\nBranding,\nInfluencer Marketing,\nWebsite Development, and\nApplication Development. ",
  "terms": "",
  "contact": "Email ID: info@specno.tech\nPhone Number: +917065829752",
  "others": "We are committed to quick and best service at best in the market rates.",
  "clientId": "SpecnoTech"
}