{
  "about": "Hi i am yubo your assistant how may i help you for contact us dial  1234567890 or email on yubo@yopmail.com",
  "services": "Hi i am yubo your assistant how may i help you for contact us dial  1234567890 or email on yubo@yopmail.com",
  "terms": "",
  "contact": "",
  "others": "",
  "clientId": "tushar18"
}