{
  "about": "VUFI is a decentralized platform based on smart contracts designed for crypto-knowledge and networking that connects people from all over the world and provides limitless opportunities for development.\n\nThrough smart contracts of the Tron networks, users are rewarded in the respective cryptocurrencies for expanding their team and increasing the number of VUFI participants. The code of all contracts is publicly available, as well as information about transactions in the  Tron networks.",
  "services": "",
  "terms": "",
  "contact": "",
  "others": "",
  "clientId": "VufidApp"
}