{
  "about": "Delhi Jal Board was constituted through an Act of Delhi Legislative Assembly on 6th April 1998. It has been meeting the needs of potable water in the NationalCapital Territory of delhi for more than five decades. Delhi Jal Board has been able to supply pure and wholesome filtered water to the capital city of India which has grown phenomally to the present population of more than 160 lakh. Delhi Jal Board is committed for the augmentation of water supply in Delhi and has taken many steps in this direction. Delhi Jal Board has ensured average availability of 50 gallons per capita per day of filtered water through an efficient network of water treatment plants, booster pumping stations and about 9000 kms of water mains & distribution system.",
  "services": "The Delhi Jal Board (DJB) constituted under the Delhi Jal Board Act, 1998, is responsible for the production and distribution of drinking water as also for collection, treatment and disposal of domestic sewage in the Capital.",
  "terms": "DJB launched the project of processed packaged drinking water with the brand Name “JAL” to make available purified drinking water in 20 Liters Jars and cartons of disposable glasses containing (24 X 250ml) glasses to serve the residents of Delhi. “JAL” certified by the bureau of Indian standard, vide License No CM/L 8500666 is put through stringent purification techniques to ensure that the consumers are provided with a hygienic and quality product.\n\nGovernment Departments, Corporate offices, Resident Welfare associations, societies and the people of Delhi may also contact the bottling plant at GK -1,opposite Sadiq Nagar, New Delhi 110048 (Contact No 29234924, 29234928 & 9650591677) for the supply of packaged drinking water in 20 Ltr. “JAL” and 250 ml disposable glasses, at the MRP approved by the Delhi Jal Board .",
  "contact": "",
  "others": "",
  "clientId": "yubo_chatbot"
}